Grammar

    0 $accept: program $end

    1 program: function_list

    2 function_list: function
    3              | function_list function

    4 $@1: %empty

    5 function: _TYPE _ID $@1 _LPAREN parameter _RPAREN body

    6 parameter: %empty
    7          | _TYPE _ID

    8 $@2: %empty

    9 body: _LBRACKET variable_list $@2 statement_list _RBRACKET

   10 variable_list: %empty
   11              | variable_list variable

   12 variable: _TYPE _ID _SEMICOLON
   13         | _TYPE _ID _LSQUARE literal _RSQUARE _SEMICOLON

   14 statement_list: %empty
   15               | statement_list statement

   16 statement: compound_statement
   17          | assignment_statement
   18          | if_statement
   19          | return_statement
   20          | try_catch_statement

   21 $@3: %empty

   22 catch_statement: _CATCH _LPAREN _ID $@3 _RPAREN _LBRACKET statement_list _RBRACKET

   23 catch_statement_list: catch_statement
   24                     | catch_statement_list catch_statement

   25 @4: %empty

   26 $@5: %empty

   27 try_catch_statement: _TRY @4 _LBRACKET $@5 statement_list _RBRACKET catch_statement_list

   28 compound_statement: _LBRACKET statement_list _RBRACKET

   29 assignment_statement: _ID _ASSIGN num_exp _SEMICOLON
   30                     | _ID _LSQUARE literal _RSQUARE _ASSIGN num_exp _SEMICOLON

   31 num_exp: exp
   32        | num_exp _AROP exp

   33 exp: literal
   34    | _ID
   35    | function_call
   36    | _LPAREN num_exp _RPAREN
   37    | _ID _LSQUARE literal _RSQUARE

   38 literal: _INT_NUMBER
   39        | _UINT_NUMBER

   40 $@6: %empty

   41 function_call: _ID $@6 _LPAREN argument _RPAREN

   42 argument: %empty
   43         | num_exp

   44 if_statement: if_part
   45             | if_part _ELSE statement

   46 @7: %empty

   47 $@8: %empty

   48 if_part: _IF _LPAREN @7 rel_exp $@8 _RPAREN statement

   49 rel_exp: num_exp _RELOP num_exp

   50 return_statement: _RETURN num_exp _SEMICOLON


Terminals, with rules where they appear

    $end (0) 0
    error (256)
    _TYPE <i> (258) 5 7 12 13
    _IF (259) 48
    _ELSE (260) 45
    _RETURN (261) 50
    _ID <s> (262) 5 7 12 13 22 29 30 34 37 41
    _INT_NUMBER <s> (263) 38
    _UINT_NUMBER <s> (264) 39
    _LPAREN (265) 5 22 36 41 48
    _RPAREN (266) 5 22 36 41 48
    _LBRACKET (267) 9 22 27 28
    _RBRACKET (268) 9 22 27 28
    _ASSIGN (269) 29 30
    _SEMICOLON (270) 12 13 29 30 50
    _AROP <i> (271) 32
    _RELOP <i> (272) 49
    _TRY (273) 27
    _CATCH (274) 22
    _RSQUARE (275) 13 30 37
    _LSQUARE (276) 13 30 37
    ONLY_IF (277)


Nonterminals, with rules where they appear

    $accept (23)
        on left: 0
    program (24)
        on left: 1
        on right: 0
    function_list (25)
        on left: 2 3
        on right: 1 3
    function (26)
        on left: 5
        on right: 2 3
    $@1 (27)
        on left: 4
        on right: 5
    parameter (28)
        on left: 6 7
        on right: 5
    body (29)
        on left: 9
        on right: 5
    $@2 (30)
        on left: 8
        on right: 9
    variable_list (31)
        on left: 10 11
        on right: 9 11
    variable (32)
        on left: 12 13
        on right: 11
    statement_list (33)
        on left: 14 15
        on right: 9 15 22 27 28
    statement (34)
        on left: 16 17 18 19 20
        on right: 15 45 48
    catch_statement (35)
        on left: 22
        on right: 23 24
    $@3 (36)
        on left: 21
        on right: 22
    catch_statement_list (37)
        on left: 23 24
        on right: 24 27
    try_catch_statement (38)
        on left: 27
        on right: 20
    @4 (39)
        on left: 25
        on right: 27
    $@5 (40)
        on left: 26
        on right: 27
    compound_statement (41)
        on left: 28
        on right: 16
    assignment_statement (42)
        on left: 29 30
        on right: 17
    num_exp <i> (43)
        on left: 31 32
        on right: 29 30 32 36 43 49 50
    exp <i> (44)
        on left: 33 34 35 36 37
        on right: 31 32
    literal <i> (45)
        on left: 38 39
        on right: 13 30 33 37
    function_call <i> (46)
        on left: 41
        on right: 35
    $@6 (47)
        on left: 40
        on right: 41
    argument <i> (48)
        on left: 42 43
        on right: 41
    if_statement (49)
        on left: 44 45
        on right: 18
    if_part <i> (50)
        on left: 48
        on right: 44 45
    @7 (51)
        on left: 46
        on right: 48
    $@8 (52)
        on left: 47
        on right: 48
    rel_exp <i> (53)
        on left: 49
        on right: 48
    return_statement (54)
        on left: 50
        on right: 19


State 0

    0 $accept: . program $end

    _TYPE  shift, and go to state 1

    program        go to state 2
    function_list  go to state 3
    function       go to state 4


State 1

    5 function: _TYPE . _ID $@1 _LPAREN parameter _RPAREN body

    _ID  shift, and go to state 5


State 2

    0 $accept: program . $end

    $end  shift, and go to state 6


State 3

    1 program: function_list .
    3 function_list: function_list . function

    _TYPE  shift, and go to state 1

    $default  reduce using rule 1 (program)

    function  go to state 7


State 4

    2 function_list: function .

    $default  reduce using rule 2 (function_list)


State 5

    5 function: _TYPE _ID . $@1 _LPAREN parameter _RPAREN body

    $default  reduce using rule 4 ($@1)

    $@1  go to state 8


State 6

    0 $accept: program $end .

    $default  accept


State 7

    3 function_list: function_list function .

    $default  reduce using rule 3 (function_list)


State 8

    5 function: _TYPE _ID $@1 . _LPAREN parameter _RPAREN body

    _LPAREN  shift, and go to state 9


State 9

    5 function: _TYPE _ID $@1 _LPAREN . parameter _RPAREN body

    _TYPE  shift, and go to state 10

    $default  reduce using rule 6 (parameter)

    parameter  go to state 11


State 10

    7 parameter: _TYPE . _ID

    _ID  shift, and go to state 12


State 11

    5 function: _TYPE _ID $@1 _LPAREN parameter . _RPAREN body

    _RPAREN  shift, and go to state 13


State 12

    7 parameter: _TYPE _ID .

    $default  reduce using rule 7 (parameter)


State 13

    5 function: _TYPE _ID $@1 _LPAREN parameter _RPAREN . body

    _LBRACKET  shift, and go to state 14

    body  go to state 15


State 14

    9 body: _LBRACKET . variable_list $@2 statement_list _RBRACKET

    $default  reduce using rule 10 (variable_list)

    variable_list  go to state 16


State 15

    5 function: _TYPE _ID $@1 _LPAREN parameter _RPAREN body .

    $default  reduce using rule 5 (function)


State 16

    9 body: _LBRACKET variable_list . $@2 statement_list _RBRACKET
   11 variable_list: variable_list . variable

    _TYPE  shift, and go to state 17

    $default  reduce using rule 8 ($@2)

    $@2       go to state 18
    variable  go to state 19


State 17

   12 variable: _TYPE . _ID _SEMICOLON
   13         | _TYPE . _ID _LSQUARE literal _RSQUARE _SEMICOLON

    _ID  shift, and go to state 20


State 18

    9 body: _LBRACKET variable_list $@2 . statement_list _RBRACKET

    $default  reduce using rule 14 (statement_list)

    statement_list  go to state 21


State 19

   11 variable_list: variable_list variable .

    $default  reduce using rule 11 (variable_list)


State 20

   12 variable: _TYPE _ID . _SEMICOLON
   13         | _TYPE _ID . _LSQUARE literal _RSQUARE _SEMICOLON

    _SEMICOLON  shift, and go to state 22
    _LSQUARE    shift, and go to state 23


State 21

    9 body: _LBRACKET variable_list $@2 statement_list . _RBRACKET
   15 statement_list: statement_list . statement

    _IF        shift, and go to state 24
    _RETURN    shift, and go to state 25
    _ID        shift, and go to state 26
    _LBRACKET  shift, and go to state 27
    _RBRACKET  shift, and go to state 28
    _TRY       shift, and go to state 29

    statement             go to state 30
    try_catch_statement   go to state 31
    compound_statement    go to state 32
    assignment_statement  go to state 33
    if_statement          go to state 34
    if_part               go to state 35
    return_statement      go to state 36


State 22

   12 variable: _TYPE _ID _SEMICOLON .

    $default  reduce using rule 12 (variable)


State 23

   13 variable: _TYPE _ID _LSQUARE . literal _RSQUARE _SEMICOLON

    _INT_NUMBER   shift, and go to state 37
    _UINT_NUMBER  shift, and go to state 38

    literal  go to state 39


State 24

   48 if_part: _IF . _LPAREN @7 rel_exp $@8 _RPAREN statement

    _LPAREN  shift, and go to state 40


State 25

   50 return_statement: _RETURN . num_exp _SEMICOLON

    _ID           shift, and go to state 41
    _INT_NUMBER   shift, and go to state 37
    _UINT_NUMBER  shift, and go to state 38
    _LPAREN       shift, and go to state 42

    num_exp        go to state 43
    exp            go to state 44
    literal        go to state 45
    function_call  go to state 46


State 26

   29 assignment_statement: _ID . _ASSIGN num_exp _SEMICOLON
   30                     | _ID . _LSQUARE literal _RSQUARE _ASSIGN num_exp _SEMICOLON

    _ASSIGN   shift, and go to state 47
    _LSQUARE  shift, and go to state 48


State 27

   28 compound_statement: _LBRACKET . statement_list _RBRACKET

    $default  reduce using rule 14 (statement_list)

    statement_list  go to state 49


State 28

    9 body: _LBRACKET variable_list $@2 statement_list _RBRACKET .

    $default  reduce using rule 9 (body)


State 29

   27 try_catch_statement: _TRY . @4 _LBRACKET $@5 statement_list _RBRACKET catch_statement_list

    $default  reduce using rule 25 (@4)

    @4  go to state 50


State 30

   15 statement_list: statement_list statement .

    $default  reduce using rule 15 (statement_list)


State 31

   20 statement: try_catch_statement .

    $default  reduce using rule 20 (statement)


State 32

   16 statement: compound_statement .

    $default  reduce using rule 16 (statement)


State 33

   17 statement: assignment_statement .

    $default  reduce using rule 17 (statement)


State 34

   18 statement: if_statement .

    $default  reduce using rule 18 (statement)


State 35

   44 if_statement: if_part .
   45             | if_part . _ELSE statement

    _ELSE  shift, and go to state 51

    $default  reduce using rule 44 (if_statement)


State 36

   19 statement: return_statement .

    $default  reduce using rule 19 (statement)


State 37

   38 literal: _INT_NUMBER .

    $default  reduce using rule 38 (literal)


State 38

   39 literal: _UINT_NUMBER .

    $default  reduce using rule 39 (literal)


State 39

   13 variable: _TYPE _ID _LSQUARE literal . _RSQUARE _SEMICOLON

    _RSQUARE  shift, and go to state 52


State 40

   48 if_part: _IF _LPAREN . @7 rel_exp $@8 _RPAREN statement

    $default  reduce using rule 46 (@7)

    @7  go to state 53


State 41

   34 exp: _ID .
   37    | _ID . _LSQUARE literal _RSQUARE
   41 function_call: _ID . $@6 _LPAREN argument _RPAREN

    _LSQUARE  shift, and go to state 54

    _LPAREN   reduce using rule 40 ($@6)
    $default  reduce using rule 34 (exp)

    $@6  go to state 55


State 42

   36 exp: _LPAREN . num_exp _RPAREN

    _ID           shift, and go to state 41
    _INT_NUMBER   shift, and go to state 37
    _UINT_NUMBER  shift, and go to state 38
    _LPAREN       shift, and go to state 42

    num_exp        go to state 56
    exp            go to state 44
    literal        go to state 45
    function_call  go to state 46


State 43

   32 num_exp: num_exp . _AROP exp
   50 return_statement: _RETURN num_exp . _SEMICOLON

    _SEMICOLON  shift, and go to state 57
    _AROP       shift, and go to state 58


State 44

   31 num_exp: exp .

    $default  reduce using rule 31 (num_exp)


State 45

   33 exp: literal .

    $default  reduce using rule 33 (exp)


State 46

   35 exp: function_call .

    $default  reduce using rule 35 (exp)


State 47

   29 assignment_statement: _ID _ASSIGN . num_exp _SEMICOLON

    _ID           shift, and go to state 41
    _INT_NUMBER   shift, and go to state 37
    _UINT_NUMBER  shift, and go to state 38
    _LPAREN       shift, and go to state 42

    num_exp        go to state 59
    exp            go to state 44
    literal        go to state 45
    function_call  go to state 46


State 48

   30 assignment_statement: _ID _LSQUARE . literal _RSQUARE _ASSIGN num_exp _SEMICOLON

    _INT_NUMBER   shift, and go to state 37
    _UINT_NUMBER  shift, and go to state 38

    literal  go to state 60


State 49

   15 statement_list: statement_list . statement
   28 compound_statement: _LBRACKET statement_list . _RBRACKET

    _IF        shift, and go to state 24
    _RETURN    shift, and go to state 25
    _ID        shift, and go to state 26
    _LBRACKET  shift, and go to state 27
    _RBRACKET  shift, and go to state 61
    _TRY       shift, and go to state 29

    statement             go to state 30
    try_catch_statement   go to state 31
    compound_statement    go to state 32
    assignment_statement  go to state 33
    if_statement          go to state 34
    if_part               go to state 35
    return_statement      go to state 36


State 50

   27 try_catch_statement: _TRY @4 . _LBRACKET $@5 statement_list _RBRACKET catch_statement_list

    _LBRACKET  shift, and go to state 62


State 51

   45 if_statement: if_part _ELSE . statement

    _IF        shift, and go to state 24
    _RETURN    shift, and go to state 25
    _ID        shift, and go to state 26
    _LBRACKET  shift, and go to state 27
    _TRY       shift, and go to state 29

    statement             go to state 63
    try_catch_statement   go to state 31
    compound_statement    go to state 32
    assignment_statement  go to state 33
    if_statement          go to state 34
    if_part               go to state 35
    return_statement      go to state 36


State 52

   13 variable: _TYPE _ID _LSQUARE literal _RSQUARE . _SEMICOLON

    _SEMICOLON  shift, and go to state 64


State 53

   48 if_part: _IF _LPAREN @7 . rel_exp $@8 _RPAREN statement

    _ID           shift, and go to state 41
    _INT_NUMBER   shift, and go to state 37
    _UINT_NUMBER  shift, and go to state 38
    _LPAREN       shift, and go to state 42

    num_exp        go to state 65
    exp            go to state 44
    literal        go to state 45
    function_call  go to state 46
    rel_exp        go to state 66


State 54

   37 exp: _ID _LSQUARE . literal _RSQUARE

    _INT_NUMBER   shift, and go to state 37
    _UINT_NUMBER  shift, and go to state 38

    literal  go to state 67


State 55

   41 function_call: _ID $@6 . _LPAREN argument _RPAREN

    _LPAREN  shift, and go to state 68


State 56

   32 num_exp: num_exp . _AROP exp
   36 exp: _LPAREN num_exp . _RPAREN

    _RPAREN  shift, and go to state 69
    _AROP    shift, and go to state 58


State 57

   50 return_statement: _RETURN num_exp _SEMICOLON .

    $default  reduce using rule 50 (return_statement)


State 58

   32 num_exp: num_exp _AROP . exp

    _ID           shift, and go to state 41
    _INT_NUMBER   shift, and go to state 37
    _UINT_NUMBER  shift, and go to state 38
    _LPAREN       shift, and go to state 42

    exp            go to state 70
    literal        go to state 45
    function_call  go to state 46


State 59

   29 assignment_statement: _ID _ASSIGN num_exp . _SEMICOLON
   32 num_exp: num_exp . _AROP exp

    _SEMICOLON  shift, and go to state 71
    _AROP       shift, and go to state 58


State 60

   30 assignment_statement: _ID _LSQUARE literal . _RSQUARE _ASSIGN num_exp _SEMICOLON

    _RSQUARE  shift, and go to state 72


State 61

   28 compound_statement: _LBRACKET statement_list _RBRACKET .

    $default  reduce using rule 28 (compound_statement)


State 62

   27 try_catch_statement: _TRY @4 _LBRACKET . $@5 statement_list _RBRACKET catch_statement_list

    $default  reduce using rule 26 ($@5)

    $@5  go to state 73


State 63

   45 if_statement: if_part _ELSE statement .

    $default  reduce using rule 45 (if_statement)


State 64

   13 variable: _TYPE _ID _LSQUARE literal _RSQUARE _SEMICOLON .

    $default  reduce using rule 13 (variable)


State 65

   32 num_exp: num_exp . _AROP exp
   49 rel_exp: num_exp . _RELOP num_exp

    _AROP   shift, and go to state 58
    _RELOP  shift, and go to state 74


State 66

   48 if_part: _IF _LPAREN @7 rel_exp . $@8 _RPAREN statement

    $default  reduce using rule 47 ($@8)

    $@8  go to state 75


State 67

   37 exp: _ID _LSQUARE literal . _RSQUARE

    _RSQUARE  shift, and go to state 76


State 68

   41 function_call: _ID $@6 _LPAREN . argument _RPAREN

    _ID           shift, and go to state 41
    _INT_NUMBER   shift, and go to state 37
    _UINT_NUMBER  shift, and go to state 38
    _LPAREN       shift, and go to state 42

    $default  reduce using rule 42 (argument)

    num_exp        go to state 77
    exp            go to state 44
    literal        go to state 45
    function_call  go to state 46
    argument       go to state 78


State 69

   36 exp: _LPAREN num_exp _RPAREN .

    $default  reduce using rule 36 (exp)


State 70

   32 num_exp: num_exp _AROP exp .

    $default  reduce using rule 32 (num_exp)


State 71

   29 assignment_statement: _ID _ASSIGN num_exp _SEMICOLON .

    $default  reduce using rule 29 (assignment_statement)


State 72

   30 assignment_statement: _ID _LSQUARE literal _RSQUARE . _ASSIGN num_exp _SEMICOLON

    _ASSIGN  shift, and go to state 79


State 73

   27 try_catch_statement: _TRY @4 _LBRACKET $@5 . statement_list _RBRACKET catch_statement_list

    $default  reduce using rule 14 (statement_list)

    statement_list  go to state 80


State 74

   49 rel_exp: num_exp _RELOP . num_exp

    _ID           shift, and go to state 41
    _INT_NUMBER   shift, and go to state 37
    _UINT_NUMBER  shift, and go to state 38
    _LPAREN       shift, and go to state 42

    num_exp        go to state 81
    exp            go to state 44
    literal        go to state 45
    function_call  go to state 46


State 75

   48 if_part: _IF _LPAREN @7 rel_exp $@8 . _RPAREN statement

    _RPAREN  shift, and go to state 82


State 76

   37 exp: _ID _LSQUARE literal _RSQUARE .

    $default  reduce using rule 37 (exp)


State 77

   32 num_exp: num_exp . _AROP exp
   43 argument: num_exp .

    _AROP  shift, and go to state 58

    $default  reduce using rule 43 (argument)


State 78

   41 function_call: _ID $@6 _LPAREN argument . _RPAREN

    _RPAREN  shift, and go to state 83


State 79

   30 assignment_statement: _ID _LSQUARE literal _RSQUARE _ASSIGN . num_exp _SEMICOLON

    _ID           shift, and go to state 41
    _INT_NUMBER   shift, and go to state 37
    _UINT_NUMBER  shift, and go to state 38
    _LPAREN       shift, and go to state 42

    num_exp        go to state 84
    exp            go to state 44
    literal        go to state 45
    function_call  go to state 46


State 80

   15 statement_list: statement_list . statement
   27 try_catch_statement: _TRY @4 _LBRACKET $@5 statement_list . _RBRACKET catch_statement_list

    _IF        shift, and go to state 24
    _RETURN    shift, and go to state 25
    _ID        shift, and go to state 26
    _LBRACKET  shift, and go to state 27
    _RBRACKET  shift, and go to state 85
    _TRY       shift, and go to state 29

    statement             go to state 30
    try_catch_statement   go to state 31
    compound_statement    go to state 32
    assignment_statement  go to state 33
    if_statement          go to state 34
    if_part               go to state 35
    return_statement      go to state 36


State 81

   32 num_exp: num_exp . _AROP exp
   49 rel_exp: num_exp _RELOP num_exp .

    _AROP  shift, and go to state 58

    $default  reduce using rule 49 (rel_exp)


State 82

   48 if_part: _IF _LPAREN @7 rel_exp $@8 _RPAREN . statement

    _IF        shift, and go to state 24
    _RETURN    shift, and go to state 25
    _ID        shift, and go to state 26
    _LBRACKET  shift, and go to state 27
    _TRY       shift, and go to state 29

    statement             go to state 86
    try_catch_statement   go to state 31
    compound_statement    go to state 32
    assignment_statement  go to state 33
    if_statement          go to state 34
    if_part               go to state 35
    return_statement      go to state 36


State 83

   41 function_call: _ID $@6 _LPAREN argument _RPAREN .

    $default  reduce using rule 41 (function_call)


State 84

   30 assignment_statement: _ID _LSQUARE literal _RSQUARE _ASSIGN num_exp . _SEMICOLON
   32 num_exp: num_exp . _AROP exp

    _SEMICOLON  shift, and go to state 87
    _AROP       shift, and go to state 58


State 85

   27 try_catch_statement: _TRY @4 _LBRACKET $@5 statement_list _RBRACKET . catch_statement_list

    _CATCH  shift, and go to state 88

    catch_statement       go to state 89
    catch_statement_list  go to state 90


State 86

   48 if_part: _IF _LPAREN @7 rel_exp $@8 _RPAREN statement .

    $default  reduce using rule 48 (if_part)


State 87

   30 assignment_statement: _ID _LSQUARE literal _RSQUARE _ASSIGN num_exp _SEMICOLON .

    $default  reduce using rule 30 (assignment_statement)


State 88

   22 catch_statement: _CATCH . _LPAREN _ID $@3 _RPAREN _LBRACKET statement_list _RBRACKET

    _LPAREN  shift, and go to state 91


State 89

   23 catch_statement_list: catch_statement .

    $default  reduce using rule 23 (catch_statement_list)


State 90

   24 catch_statement_list: catch_statement_list . catch_statement
   27 try_catch_statement: _TRY @4 _LBRACKET $@5 statement_list _RBRACKET catch_statement_list .

    _CATCH  shift, and go to state 88

    $default  reduce using rule 27 (try_catch_statement)

    catch_statement  go to state 92


State 91

   22 catch_statement: _CATCH _LPAREN . _ID $@3 _RPAREN _LBRACKET statement_list _RBRACKET

    _ID  shift, and go to state 93


State 92

   24 catch_statement_list: catch_statement_list catch_statement .

    $default  reduce using rule 24 (catch_statement_list)


State 93

   22 catch_statement: _CATCH _LPAREN _ID . $@3 _RPAREN _LBRACKET statement_list _RBRACKET

    $default  reduce using rule 21 ($@3)

    $@3  go to state 94


State 94

   22 catch_statement: _CATCH _LPAREN _ID $@3 . _RPAREN _LBRACKET statement_list _RBRACKET

    _RPAREN  shift, and go to state 95


State 95

   22 catch_statement: _CATCH _LPAREN _ID $@3 _RPAREN . _LBRACKET statement_list _RBRACKET

    _LBRACKET  shift, and go to state 96


State 96

   22 catch_statement: _CATCH _LPAREN _ID $@3 _RPAREN _LBRACKET . statement_list _RBRACKET

    $default  reduce using rule 14 (statement_list)

    statement_list  go to state 97


State 97

   15 statement_list: statement_list . statement
   22 catch_statement: _CATCH _LPAREN _ID $@3 _RPAREN _LBRACKET statement_list . _RBRACKET

    _IF        shift, and go to state 24
    _RETURN    shift, and go to state 25
    _ID        shift, and go to state 26
    _LBRACKET  shift, and go to state 27
    _RBRACKET  shift, and go to state 98
    _TRY       shift, and go to state 29

    statement             go to state 30
    try_catch_statement   go to state 31
    compound_statement    go to state 32
    assignment_statement  go to state 33
    if_statement          go to state 34
    if_part               go to state 35
    return_statement      go to state 36


State 98

   22 catch_statement: _CATCH _LPAREN _ID $@3 _RPAREN _LBRACKET statement_list _RBRACKET .

    $default  reduce using rule 22 (catch_statement)
